﻿Weapon,Attack Type,Type,Class,Range,Rate of Fire,No Damage Dice,Damage Die,Damage Bonus,Type,Penetration,Clip,Reload,Blast,Keywords
Laspistol,Ranged,Las,Pistol,30,S/-/-,1,10,2,E,0,30,Full,0,Reliable
Las Carbine,Ranged,Las,Basic,60,S/2/-,1,10,2,E,0,40,Full,0,Reliable
Lasgun,Ranged,Las,Basic,100,S/3/-,1,10,3,E,0,60,Full,0,Reliable
Long Las,Ranged,Las,Basic,150,S/-/-,1,10,3,E,11,40,Full,0,"Reliable, Accurate"
MP Lascannon,Ranged,Las,Heavy,300,S/-/-,5,10,10,E,10,5,2Full,0,
Autopistol,Ranged,SP,Pistol,30,S/-/6,1,10,2,I,0,18,Full,0,
Stub Revolver,Ranged,SP,Pistol,30,S/-/-,1,10,3,I,0,6,2Full,0,Reliable
Stub Automatic,Ranged,SP,Pistol,30,S/3/-,1,10,3,I,0,9,Full,0,
Hand Cannon,Ranged,SP,Pistol,35,S/-/-,1,10,4,I,2,5,2Full,,
Autogun,Ranged,SP,Basic,90,S/3/10,1,10,3,I,0,30,Full,,
Hunting Rifle,Ranged,SP,Basic,150,S,1,10,3,I,0,5,Full,,Accurate
Shotgun,Ranged,SP,Basic,30,S,1,10,4,I,0,2,2Full,,"Scatter, Reliable"
Pump-Action Shotgun,Ranged,SP,Basic,30,S,1,10,4,I,0,8,2Full,,"Scatter, Reliable"
Combat Shotgun,Ranged,SP,Basic,30,S/3,1,10,4,I,0,18,Full,,Scatter
Heavy Stubber,Ranged,SP,Heavy,120,-/-/10,1,10,4,I,3,200,2Full,,
Bolt Pistol,Ranged,Bolt,Pistol,30,S/2/-,1,10,5,X,4,8,Full,,
Boltgun,Ranged,Bolt,Basic,90,S/2/-,1,10,5,X,4,24,Full,,
Heavy Bolter,Ranged,Bolt,Heavy,120,-/-/10,2,10,0,X,5,60,2Full,,
Inferno Pistol,Ranged,Melta,Pistol,10,S,2,10,4,E,12,3,Full,,
Meltagun,Ranged,Melta,Basic,20,S,2,10,4,E,12,5,2Full,,
Plasma Pistol,Ranged,Plasma,Pistol,30,S,1,10,6,E,6,10,4Full,,"Recharge, Overheats"
Plasma Gun,Ranged,Plasma,Basic,90,S/2/-,1,10,6,E,6,20,8Full,,"Recharge, Overheats"
Hand Flamer,Ranged,Flame,Pistol,10,S,1,10,4,E,2,2,2Full,,Flame
Flamer,Ranged,Flame,Basic,20,S,1,10,4,E,3,3,2Full,,Flame
Bolas,Ranged,Primitive,Thrown,10,S,0,10,0,I,0,1,Full,,"Primitive, Snare, Innacurate"
Hand Bow,Ranged,Primitive,Pistol,15,S,1,10,0,R,0,1,Full,,Primitive
Flintlock Pistol,Ranged,Primitive,Pistol,15,S,1,10,2,I,0,1,3Full,,"Primitive, Unreliable, Inaccurate"
Musket,Ranged,Primitive,Basic,30,S,1,10,2,I,0,1,5Full,,"Primitive, Unreliable, Inaccurate"
Bow,Ranged,Primitive,Basic,30,S,1,10,0,R,0,1,Half,,"Primitive, Reliable"
Sling,Ranged,Primitive,Basic,15,S,1,10,-2,I,0,1,Full,,Primitive
Crossbow,Ranged,Primitive,Basic,30,S,1,10,0,R,0,1,2Full,,Primitive
Grenade Launcher,Ranged,Launcher,Basic,60,S,0,1,0,X,0,6,Full,,
RPG Launcher,Ranged,Launcher,Heavy,120,S,0,1,0,X,0,1,Full,,
Frag,Thrown,Grenade,Thrown,SBx3,S,2,10,0,X,0,0,Full,4,
Krak,Thrown,Grenade,Thrown,SBx4,S,2,10,4,X,6,0,Full,,
Blind,Thrown,Grenade,Thrown,SBx5,S,0,10,0,X,0,0,Full,,Smoke
Photon Flash,Thrown,Grenade,Thrown,SBx6,S,0,10,0,X,0,0,Full,,
Hallucinogen,Thrown,Grenade,Thrown,SBx7,S,0,10,0,X,0,0,Full,,
Fire Bomb,Thrown,Grenade,Thrown,SBx8,S,1,10,3,E,0,0,Full,3,
Needle Pistol,Ranged,Exotic,Pistol,30,S,1,10,0,R,0,6,Full,,"Accurate, Toxic"
Web Pistol,Ranged,Exotic,Pistol,30,S,0,10,0,R,0,1,Full,,Snare
Needle Rifle,Ranged,Exotic,Basic,180,S,1,10,0,R,0,6,2Full,,"Accurate, Toxic"
Webber,Ranged,Exotic,Basic,50,S,0,10,0,R,0,1,Full,5,Snare
Axe,Melee,Primitive,Melee,0,S,1,10,1,R,0,0,Full,,"Primitive, Unbalanced"
Brass Knuckles,Melee,Primitive,Melee,0,S,1,5,-1,I,0,0,Full,,Primitive
Club,Melee,Primitive,Melee,0,S,1,10,0,I,0,0,Full,,Primitive
Flail,Melee,Primitive,Melee,0,S,1,10,2,I,0,0,Full,,"Flexible, Primitive"
Great Weapon,Melee,Primitive,Melee,0,S,2,10,0,R,2,0,Full,,"Primitive, Unwieldy"
Hammer,Melee,Primitive,Melee,0,S,1,10,1,I,0,0,Full,,"Primitive, Unbalanced"
Improvised,Melee,Primitive,Melee,0,S,1,10,-2,I,0,0,Full,,"Primitive, Unbalanced"
Knife,Melee,Primitive,Melee,3,S,1,5,0,R,0,0,Full,,Primitive
Throwing Knife,Melee,Primitive,Melee,5,S,1,5,0,R,0,0,Full,,Primitive
Shield,Melee,Primitive,Melee,0,S,1,5,0,I,0,0,Full,,"Defensive, Primitive"
Spear,Melee,Primitive,Melee,10,S,1,10,0,R,0,0,Full,,Primitive
Sword,Melee,Primitive,Melee,0,S,1,10,0,R,0,0,Full,,"Balanced, Primitive"
Staff,Melee,Primitive,Melee,0,S,1,10,0,I,0,0,Full,,"Balanced, Primitive"
Chainsword,Melee,Chain,Melee,0,S,1,10,2,R,2,0,Full,,"Balanced, Tearing"
Chain Axe,Melee,Chain,Melee,0,S,1,10,4,R,2,0,Full,,Tearing
Power Blade,Melee,Power,Melee,0,S,1,10,3,E,6,0,Full,,Power Field
Power Sword,Melee,Power,Melee,0,S,1,10,5,E,6,0,Full,,"Power Field, Balanced"
Shock Maul,Melee,Shock,Melee,0,S,1,10,0,I,0,0,Full,,Shocking
Electro-Flail,Melee,Shock,Melee,0,S,1,10,2,I,0,0,Full,,"Flexible, Shocking"
